An Introduction to PsychPower
…
3. Example

This example outlines the analysis performed in Spiller et al. (2021) using sample data also include in the same publication.

The sample data consist of 39,700 complete answers to the 13-item anxiety subscale of the Depression Anxiety Stress Scales (DASS; Nieuwenhuijsen et al. (2003)). All 13 items were rated on a 4-point Likert scale, ranging from 1 to 4. The raw data were collected and provided by the Open-Source Psychometrics Project.

3.1 Load Data

First, we load the sample data.

data("data_test")

Next, we inspect the first 10 rows (participants) and 5 of the total 13 columns (questionnaire items) of the sample data.

#> # A tibble: 39,700 × 5
#>       Q2    Q7    Q9   Q15   Q19
#>    <dbl> <dbl> <dbl> <dbl> <dbl>
#>  1     4     4     2     4     3
#>  2     1     3     3     3     1
#>  3     1     1     2     4     2
#>  4     3     4     3     2     1
#>  5     2     4     4     4     4
#>  6     1     1     3     2     1
#>  7     1     3     3     3     1
#>  8     1     2     1     2     1
#>  9     4     4     4     4     4
#> 10     2     3     4     2     4
#> # … with 39,690 more rows
…
As outlined in the publication, a phenotype is defined as a unique combination of a finite set of items (in this example symptoms) used to describe or define a psychological construct (in this example a mental disorder).

3.2.1 Binarize variables

Here, we are only interested in presence or absence of a symptom and not in their severity. Therefore, we need to dichotomize or binarize the participants answers. We have to choose a cut-off, defining which ratings should be indicative of symptom presence or absence.

In this example, a cut-off of 2 is chosen based on the literature.

data_binarized <- binarize(data_test, cut_off = 2)

NOTE: binarize() handles the cut-off by binarzing any value smaller or equal to the cut-off to 0 and any value greater than the cut-off to 1. It names the binarized variables “v_binN”, with ascending N starting with 1. The binarized variables are added to the input data.

Inspection of the binarized ratings of the first 5 variables reveals that the ratings have been binarized.

#> # A tibble: 39,700 × 6
#>    v_bin1 v_bin2 v_bin3 v_bin4 v_bin5 v_bin6
#>     <dbl>  <dbl>  <dbl>  <dbl>  <dbl>  <dbl>
#>  1      1      1      0      1      1      1
#>  2      0      1      1      1      0      0
#>  3      0      0      0      1      0      0
#>  4      1      1      1      0      0      0
#>  5      0      1      1      1      1      1
#>  6      0      0      1      0      0      0
#>  7      0      1      1      1      0      1
#>  8      0      0      0      0      0      0
#>  9      1      1      1      1      1      1
#> 10      0      1      1      0      1      1
#> # … with 39,690 more rows
…
